{ 
	"$schema": "https://raw.githubusercontent.com/liferay/liferay-js-toolkit/master/resources/schemas/configuration.schema.json",
	"system": {
		"category": "guestbook-react-web", 
		"name": "guestbook-react-web",
		"fields": { 
		} 
	},
	"portletInstance": {
		"fields": { 
		} 
	}
}
